26.357
21.309
11.866
1.7659
-7.5964
37.532
8.2992
2.1691
14.416
21.474
-3.88
21.671
29.613
11.533
-1.6322
20.656
20.773
12.821
6.1146
39.741
6.997
-4.4702
-8.7155
-2.3274
7.8554
2.3412
21.907
50.432
4.8213
2.7716
-13.957
37.428
-0.59587
1.2899
11.827
-12.982
3.5883
-1.7076
-12.406
11.888
6.0725
8.8233
-12.681
-16.407
-14.077
-9.7555
-21.946
-0.10833
16.572
-12.928
-22.871
31.36
-2.3418
-9.9444
-20.068
-5.0107
-9.3724
-5.6845
-17.401
13.305
-7.3094
-13.467
-16.063
20.965
-4.0689
2.4665
-16.319
-3.7732
-17.633
7.6615
-12.46
-20.591
-19.774
-30.781
-4.3359
12.15
-12.205
-30.235
-7.2645
-11.406
-35.778
-14.718
-5.3912
0.9049
-5.822
-8.9762
-29.234
-21.42
-21.003
-4.8848
-11.143
-26.48
-14.844
1.3786
-17.989
-30.341
-12.128
-22.286
-18.663
-19.682
-19.48
-21.587
-12.466
-2.938
0.26428
-11.112
-2.0375
-20.294
-18.896
-7.2008
0.56793
-3.8941
-4.8119
-1.382
-4.8662
-12.53
-6.5219
-54.803
-26.582
6.2059
-1.9764
-42.284
-50.776
-1.1614
-17.045
-6.4719
-2.9648
-17.025
-15.149
-16.553
15.436
-7.0901
-18.458
-12.901
5.5126
4.5818
1.4238
-10.45
-3.6601
3.1702
-9.8501
-5.9657
5.4794
21.899
-1.1218
2.7211
-7.1407
-16.706
13.279
2.0115
-19.522
13.676
28.41
5.4084
-9.5547
3.8054
8.0863
8.3301
-3.7439
7.3052
-0.23941
10.2
-6.0648
-14.765
-15.029
-6.9503
30.24
17.808
5.4395
10.694
0.10395
6.9228
6.006
3.5611
5.696
13.125
-14.114
-0.89611
40.218
35.619
7.8798
20.92
9.7059
-9.3628
31.854
4.1655
-3.5054
12.803
0.98347
-6.4852
-15.941
2.5373
22.445
-10.678
11.389
42.258
20.804
10.584
6.0023
14.415
10.146
17.372
8.8182
3.9548
-5.2613
-21.763
19.464
2.5036
6.1636
22.774
38.473
20.994
-12.248
-9.8384
-2.1203
-3.4809
-0.44563
1.3862
5.141
19.526
-3.1249
6.7022
30.491
9.9646
-0.64214
-10.165
-18.61
-15.363
-20.96
10.53
-16.015
-12.064
-25.36
-23.964
-18.019
-13.468
10.875
-7.2368
-13.144
8.7104
-11.041
-20.334
-11.963
5.3087
-16.088
-13.104
-19.088
-9.9494
16.896
-14.221
-7.9061
-4.4838
-24.29
-31.729
-43.487
0.75107
-9.3477
-11.39
-33.839
2.9361
3.3132
-6.2035
-6.8932
7.4682
3.2456
-11.704
1.3258
1.8171
15.94
-33.137
-12.01
6.005
-17.609
-27.437
-35.321
-9.0117
19.912
-9.5507
-22.366
-25.846
-8.3762
-16.794
-14.789
-19.365
-4.5456
0.5089
-11.79
9.6598
6.4328
0.6225
-8.0794
-10.912
16.92
-7.5794
-14.095
-1.2635
-19.374
1.8284
1.2769
19.082
-1.0141
53.545
133.21
-29.031
-19.629
12.172
33.735
3.3631
-31.818
-23.354
-18.288
3.1995
-1.9834
6.7153
-4.7613
-8.8102
-11.033
-1.1422
-2.4242
55.959
-5.7239
0.70591
1.5553
2.0764
-5.0431
23.791
21.06
2.0959
31.677
13.233
2.041
-17.731
-2.4488
5.6796
22.007
17.226
3.8587
-12.777
-2.5117
-12.29
31.786
17.426
5.2076
-8.5073
4.3761
52.506
4.863
-4.5712
16.615
19.847
-0.48775
14.884
20.235
3.1444
2.4058
7.1658
-3.7346
7.0213
61.828
22.744
-8.6975
-5.5435
9.2778
-16.854
0.73012
4.5695
3.1324
31.839
14.642
-17.131
-6.014
3.386
-3.3057
-17.211
10.812
19.451
15.416
-1.5385
-12.774
12.519
26.909
6.0376
13.01
0.6586
-10.866
49.352
-5.5385
-19.324
0.37448
-14.905
0.44814
7.7619
12.205
-4.3532
-16.397
-35.81
-28.628
4.8725
22.826
-14.594
-17.646
-17.703
-6.4254
-0.01303
-13.54
19.321
-6.5601
-8.7136
-42.307
-3.4562
25.136
8.2118
4.2292
-10.922
-8.3386
-9.8239
-20.017
-14.529
5.4293
10.61
34.49
-37.073
-23.439
-10.802
-9.2877
-25.295
-7.2703
-6.2261
-8.5858
1.8666
-2.4154
-20.611
-21.435
7.3863
-15.829
-16.077
-23.097
-8.3288
-7.2692
6.6787
-14.729
-14.211
-1.4927
-11.293
-4.7281
-16.211
25.952
-17.768
4.2255
-17.105
-0.53239
0.17285
-33.246
-21.548
-47.389
14.046
28.413
-7.6761
-11.025
2.3027
8.5856
-18.147
-6.8784
-20.698
7.4639
-3.2549
-10.9
-0.53523
4.3361
-5.4006
-14.818
-12.716
-17.852
8.698
29.426
18.744
-20.588
-12.788
-1.9345
-20.122
-12.011
-17.615
-16.528
18.915
-2.8829
-15.849
-27.447
-4.0791
-37.68
-18.069
-10.727
17.706
9.5512
3.7485
-8.0787
-0.36981
1.8051
-1.1629
-21.308
31.003
5.4806
13.792
-6.3552
-21.95
-8.2183
-6.861
6.1409
12.705
5.7892
-2.3959
-21.51
13.076
12.661
-10.789
-13.097
16.714
7.7639
9.5694
-31.775
29.556
14.074
4.9477
2.433
-2.3177
-10.51
-19.053
20.19
24.59
-4.373
4.7053
1.1041
-15.287
-18.243
22.881
-6.3922
-19.921
-17.464
3.4184
5.4575
-4.946
-20.201
7.0561
23.025
23.559
18.109
-8.6047
-4.6659
9.5599
7.3768
-13.406
5.4539
0.053064
-3.3498
3.7505
50.749
-28.544
-0.27742
-10.436
29.812
19.029
1.1985
-9.5958
3.2887
-6.4313
0.13658
1.3877
-1.1828
-13.92
-12.189
7.2049
14.117
-12.35
-7.7028
-1.7071
6.7971
-7.7998
-7.7546
6.8662
-4.2544
-6.3363
-6.7854
33.259
8.9743
0.072418
1.5307
-23.241
22.018
-6.1627
-8.0627
-10.424
-12.882
-11.166
-11.714
-7.5671
-6.549
-16.154
22.061
-11.652
0.49264
-9.2367
1.8624
-16.105
9.123
5.5821
-5.0072
-5.9924
2.7244
-17.513
-17.984
12.283
2.4473
-9.3181
16.297
-20.156
-4.6821
-10.979
-9.3535
-0.70616
8.3051
5.0601
-22.735
-3.779
-19.955
33.069
5.1344
-7.3229
-31.257
-12.44
-7.9438
10.977
5.9642
-13.006
-6.599
-9.6755
-10.704
0.79283
12.725
-17.448
12.207
-24.448
2.9563
-24.497
-21.95
6.5806
6.2046
2.0598
-7.7357
-29.93
-15.672
-1.8109
-3.4366
20.837
-12.688
-2.0722
-0.90981
-4.0897
6.5181
4.0252
-2.5886
-3.2119
-0.086915
-25.089
-7.6888
-8.513
-10.02
-0.89512
-7.8052
-6.6456
-3.1654
-25.406
-6.8578
23.097
8.6876
14.195
-17.464
-19.923
18.997
0.78852
4.6929
-33.443
-17.946
-4.9523
24.783
5.5778
3.0325
9.3817
-0.015583
-22.405
17.88
0.60306
9.0931
-5.1143
13.57
12.271
-3.3316
-3.2411
-12.661
-15.68
0.87114
5.4507
-11.389
-13.552
1.2732
3.5519
1.5789
-6.8403
-21.681
-20.172
23.866
1.6258
-38.205
-48.11
-0.25511
-27.96
-17.213
-10.724
35.097
5.2927
-34.089
2.5133
24.852
-10.328
-12.485
-5.9456
14.531
-38.446
-13.19
-3.7269
4.728
-14.846
-26.052
26.76
-26.316
-14.413
-3.7702
-14.16
-8.7175
2.8721
5.6005
-14.355
-9.4049
-4.579
-23.346
22.373
14.323
-13.584
-30.99
6.083
-6.3147
-16.065
-8.8474
-9.1627
-14.134
2.9408
-15.562
-15.5
17.235
13.877
8.017
-21.798
6.4813
-13.766
-19.336
-29.274
0.58965
21.867
-8.0921
-2.8312
18.701
-1.2891
17.415
6.2647
-2.2204
-19.006
-33.762
20.265
11.586
-5.3746
8.9417
-1.3033
-14.249
-33.042
-14.767
17.331
13.656
13.201
5.8664
-12.927
-2.9349
-17.524
5.4556
9.3076
6.7835
1.4656
-9.1869
-14.188
-0.34148
-16.131
9.0078
30.522
-2.571
-30.521
26.713
22.248
10.91
7.1843
-28.399
-17.007
-21.4
-2.6536
15.181
38.029
-1.0184
-14.299
-19.044
-7.9065
-10.562
0.96375
-38.356
-18.114
-21.859
3.9327
-41.574
-51.213
-37.726
